A => 1100001
I => 1001100
	 => 00101
H => 11001111
E => 0111111
M => 01011100
D => 01000000
T => 1001101
L => 0100101

 => 10010
R => 11001101
S => 01111101
  => 101
P => 010111010
O => 0100001
N => 11001001
C => 111101010
U => 01111100
k => 0100010
) => 01011101101111
i => 11101
. => 0101111
n => 0000
' => 11110100
g => 1111011
o => 0110
f => 010110
e => 1101
- => 110010001
m => 111100
! => 010001101
a => 0011
r => 11100
h => 11111
( => 0101110110110
K => 0100011001
G => 110011100
: => 01000001
s => 0001
t => 1000
, => 110001
l => 01110
d => 01010
p => 1100101
w => 011110
c => 010011
b => 1100000
u => 00100
V => 010111011010
| => 110010000010
Z => 01011101100
F => 1100111010
B => 1100111011
Y => 11001000011
v => 0100100
y => 100111
Q => 11001000000
q => 0100011000
[ => 1111010111
] => 1111010110
W => 110011001
? => 110011000
; => 01000111
x => 0101110111
j => 11001000010
z => 110010000011
J => 010111011011101
& => 010111011011100
